\relax 
\providecommand\hyper@newdestlabel[2]{}
\catcode `"\active 
\catcode `-\active 
\providecommand\HyperFirstAtBeginDocument{\AtBeginDocument}
\HyperFirstAtBeginDocument{\ifx\hyper@anchor\@undefined
\global\let\oldcontentsline\contentsline
\gdef\contentsline#1#2#3#4{\oldcontentsline{#1}{#2}{#3}}
\global\let\oldnewlabel\newlabel
\gdef\newlabel#1#2{\newlabelxx{#1}#2}
\gdef\newlabelxx#1#2#3#4#5#6{\oldnewlabel{#1}{{#2}{#3}}}
\AtEndDocument{\ifx\hyper@anchor\@undefined
\let\contentsline\oldcontentsline
\let\newlabel\oldnewlabel
\fi}
\fi}
\global\let\hyper@last\relax 
\gdef\HyperFirstAtBeginDocument#1{#1}
\providecommand\HyField@AuxAddToFields[1]{}
\providecommand\HyField@AuxAddToCoFields[2]{}
\providecommand\@newglossary[4]{}
\@newglossary{main}{glg}{gls}{glo}
\@newglossary{acronym}{alg}{acr}{acn}
\providecommand\@glsorder[1]{}
\providecommand\@istfilename[1]{}
\@istfilename{master-thesis.xdy}
\@glsorder{word}
\babel@aux{czech}{}
\@writefile{toc}{\contentsline {chapter}{Abstrakt}{iv}{chapter*.1}}
\@writefile{toc}{\contentsline {chapter}{Seznam pou\IeC {\v z}it\IeC {\'y}ch zkratek}{vi}{section*.3}}
\@writefile{toc}{\contentsline {chapter}{Seznam obr\IeC {\'a}zk\IeC {\r u}}{viii}{chapter*.5}}
\@writefile{toc}{\contentsline {chapter}{Seznam uk\IeC {\'a}zek}{ix}{chapter*.6}}
\citation{gartner_iot}
\@writefile{toc}{\contentsline {chapter}{\numberline {1}\IeC {\'U}vod}{1}{chapter.1}}
\@writefile{lof}{\addvspace {10\p@ }}
\@writefile{lot}{\addvspace {10\p@ }}
\@writefile{toc}{\contentsline {section}{\numberline {1.1}Spr\IeC {\'a}va datov\IeC {\'y}ch s\IeC {\'\i }t\IeC {\'\i }}{1}{section.1.1}}
\@writefile{toc}{\contentsline {subsection}{\numberline {1.1.1}\IeC {\'U}vod do problematiky automatizace datov\IeC {\'y}ch s\IeC {\'\i }t\IeC {\'\i }}{3}{subsection.1.1.1}}
\@writefile{toc}{\contentsline {section}{\numberline {1.2}Zam\IeC {\v e}\IeC {\v r}en\IeC {\'\i } a c\IeC {\'\i }le pr\IeC {\'a}ce}{4}{section.1.2}}
\@writefile{toc}{\contentsline {chapter}{\numberline {2}Anal\IeC {\'y}za}{6}{chapter.2}}
\@writefile{lof}{\addvspace {10\p@ }}
\@writefile{lot}{\addvspace {10\p@ }}
\@writefile{toc}{\contentsline {section}{\numberline {2.1}\IeC {\v C}ast\IeC {\'e} probl\IeC {\'e}my p\IeC {\v r}i spr\IeC {\'a}v\IeC {\v e} s\IeC {\'\i }t\IeC {\'\i }}{6}{section.2.1}}
\@writefile{toc}{\contentsline {section}{\numberline {2.2}Rozhran\IeC {\'\i } pro komunikaci}{7}{section.2.2}}
\newlabel{com_int}{{2.2}{7}{Rozhraní pro komunikaci}{section.2.2}{}}
\@writefile{toc}{\contentsline {subsection}{\numberline {2.2.1}P\IeC {\v r}\IeC {\'\i }kazov\IeC {\'a} \IeC {\v r}\IeC {\'a}dka}{7}{subsection.2.2.1}}
\@writefile{lol}{\contentsline {lstlisting}{\numberline {2.1}{\ignorespaces Textov\IeC {\'y} v\IeC {\'y}stup p\IeC {\v r}\IeC {\'\i }kazu \texttt  {show vlan brief}\relax }}{8}{lstlisting.2.1}}
\newlabel{vlan_brief_text}{{2.1}{8}{Textový výstup příkazu \texttt {show vlan brief}\relax }{lstlisting.2.1}{}}
\@writefile{lol}{\contentsline {lstlisting}{\numberline {2.2}{\ignorespaces Reprezentace p\IeC {\v r}\IeC {\'\i }kazu \texttt  {show vlan brief} ve form\IeC {\'a}tu JSON\relax }}{8}{lstlisting.2.2}}
\newlabel{vlan_brief_json}{{2.2}{8}{Reprezentace příkazu \texttt {show vlan brief} ve formátu JSON\relax }{lstlisting.2.2}{}}
\citation{rfc:iab_meeting}
\@writefile{toc}{\contentsline {subsection}{\numberline {2.2.2}\acrlong {snmp}}{9}{subsection.2.2.2}}
\@writefile{toc}{\contentsline {subsection}{\numberline {2.2.3}NETCONF}{9}{subsection.2.2.3}}
\newlabel{chap:netconf}{{2.2.3}{9}{NETCONF}{subsection.2.2.3}{}}
\@writefile{lof}{\contentsline {figure}{\numberline {2.1}{\ignorespaces NETCONF komunikace Klient-Server\relax }}{11}{figure.2.1}}
\newlabel{fig:klient-server}{{2.1}{11}{NETCONF komunikace Klient-Server\relax }{figure.2.1}{}}
\citation{4958894}
\citation{2LWNPPouU9leX5kv}
\@writefile{lol}{\contentsline {lstlisting}{\numberline {2.3}{\ignorespaces Uk\IeC {\'a}zka NETCONF zpr\IeC {\'a}vy server hello\relax }}{12}{lstlisting.2.3}}
\newlabel{server-hello}{{2.3}{12}{Ukázka NETCONF zprávy server hello\relax }{lstlisting.2.3}{}}
\@writefile{toc}{\contentsline {subsubsection}{Modely YANG}{12}{lstlisting.2.3}}
\@writefile{toc}{\contentsline {section}{\numberline {2.3}S\IeC {\'\i }\IeC {\v t}ov\IeC {\'e} \IeC {\v r}adi\IeC {\v c}e}{12}{section.2.3}}
\newlabel{network_controllers}{{2.3}{12}{Síťové řadiče}{section.2.3}{}}
\@writefile{toc}{\contentsline {subsection}{\numberline {2.3.1}P\IeC {\v r}ehled s\IeC {\'\i }\IeC {\v t}ov\IeC {\'y}ch \IeC {\v r}adi\IeC {\v c}\IeC {\r u}}{12}{subsection.2.3.1}}
\citation{doi:10.1002/sec.1737}
\citation{chou_2017}
\@writefile{toc}{\contentsline {subsection}{\numberline {2.3.2}APIC-EM}{14}{subsection.2.3.2}}
\citation{apic-em:datasheet}
\citation{apic-em-deep-dive}
\@writefile{toc}{\contentsline {subsubsection}{Z\IeC {\'a}kladn\IeC {\'\i } parametry APIC-EM}{15}{subsection.2.3.2}}
\@writefile{lof}{\contentsline {figure}{\numberline {2.2}{\ignorespaces Architektura APIC-EM\relax }}{16}{figure.2.2}}
\newlabel{fig:apic-em-arch}{{2.2}{16}{Architektura APIC-EM\relax }{figure.2.2}{}}
\@writefile{toc}{\contentsline {subsubsection}{Aplikace APIC-EM}{17}{figure.2.2}}
\@writefile{toc}{\contentsline {subsection}{\numberline {2.3.3}DNA Center}{18}{subsection.2.3.3}}
\@writefile{toc}{\contentsline {chapter}{\numberline {3}N\IeC {\'a}vrh softwarov\IeC {\'e}ho n\IeC {\'a}stroje}{20}{chapter.3}}
\@writefile{lof}{\addvspace {10\p@ }}
\@writefile{lot}{\addvspace {10\p@ }}
\@writefile{toc}{\contentsline {section}{\numberline {3.1}Z\IeC {\'a}kladn\IeC {\'\i } c\IeC {\'\i }le}{20}{section.3.1}}
\@writefile{toc}{\contentsline {section}{\numberline {3.2}Anal\IeC {\'y}za dostupn\IeC {\'y}ch mo\IeC {\v z}nost\IeC {\'\i }}{20}{section.3.2}}
\@writefile{toc}{\contentsline {subsection}{\numberline {3.2.1}Programovac\IeC {\'\i } jazyk}{20}{subsection.3.2.1}}
\@writefile{toc}{\contentsline {subsection}{\numberline {3.2.2}Komunika\IeC {\v c}n\IeC {\'\i } rozhran\IeC {\'\i }}{21}{subsection.3.2.2}}
\citation{4958894}
\@writefile{toc}{\contentsline {chapter}{\numberline {4}N\IeC {\'a}stroj NUAAL}{25}{chapter.4}}
\@writefile{lof}{\addvspace {10\p@ }}
\@writefile{lot}{\addvspace {10\p@ }}
\@writefile{toc}{\contentsline {section}{\numberline {4.1}Architektura n\IeC {\'a}stroje NUAAL}{25}{section.4.1}}
\@writefile{lof}{\contentsline {figure}{\numberline {4.1}{\ignorespaces Architektura n\IeC {\'a}stroje NUAAL\relax }}{26}{figure.4.1}}
\newlabel{fig:nuaal-01}{{4.1}{26}{Architektura nástroje NUAAL\relax }{figure.4.1}{}}
\@writefile{toc}{\contentsline {section}{\numberline {4.2}Komunika\IeC {\v c}n\IeC {\'\i } vrstva}{27}{section.4.2}}
\@writefile{toc}{\contentsline {subsection}{\numberline {4.2.1}Programov\IeC {\'y} p\IeC {\v r}\IeC {\'\i }stup k REST API}{27}{subsection.4.2.1}}
\@writefile{lol}{\contentsline {lstlisting}{\numberline {4.1}{\ignorespaces Z\IeC {\'a}kladn\IeC {\'\i } pou\IeC {\v z}it\IeC {\'\i } knihovny requests\relax }}{27}{lstlisting.4.1}}
\newlabel{requests_demo}{{4.1}{27}{Základní použití knihovny requests\relax }{lstlisting.4.1}{}}
\@writefile{lol}{\contentsline {lstlisting}{\numberline {4.2}{\ignorespaces Inicialzace spojen\IeC {\'\i } s APIC-EM REST API \relax }}{28}{lstlisting.4.2}}
\newlabel{apicembase:init}{{4.2}{28}{Inicialzace spojení s APIC-EM REST API\\\relax }{lstlisting.4.2}{}}
\@writefile{lof}{\contentsline {figure}{\numberline {4.2}{\ignorespaces Uk\IeC {\'a}zka on-line dokumentace APIC-EM REST API\relax }}{29}{figure.4.2}}
\newlabel{fig:apicem_apidocs_01}{{4.2}{29}{Ukázka on-line dokumentace APIC-EM REST API\relax }{figure.4.2}{}}
\@writefile{toc}{\contentsline {subsection}{\numberline {4.2.2}Programov\IeC {\'y} p\IeC {\v r}\IeC {\'\i }stup k CLI}{29}{subsection.4.2.2}}
\newlabel{cli_access}{{4.2.2}{29}{Programový přístup k CLI}{subsection.4.2.2}{}}
\citation{netmiko_docs}
\@writefile{lol}{\contentsline {lstlisting}{\numberline {4.3}{\ignorespaces \IeC {\'U}prava rozm\IeC {\v e}r\IeC {\r u} virtu\IeC {\'a}ln\IeC {\'\i }ho termin\IeC {\'a}lu\relax }}{30}{lstlisting.4.3}}
\citation{netmiko_github}
\@writefile{lol}{\contentsline {lstlisting}{\numberline {4.4}{\ignorespaces Inicialzace spojen\IeC {\'\i } se za\IeC {\v r}\IeC {\'\i }zen\IeC {\'\i }m prost\IeC {\v r}ednictv\IeC {\'\i }m CLI \relax }}{31}{lstlisting.4.4}}
\newlabel{Cisco_IOS_Cli:init}{{4.4}{31}{Inicialzace spojení se zařízením prostřednictvím CLI\\\relax }{lstlisting.4.4}{}}
\@writefile{toc}{\contentsline {subsection}{\numberline {4.2.3}Zpracov\IeC {\'a}n\IeC {\'\i } textov\IeC {\'y}ch v\IeC {\'y}stup\IeC {\r u}}{32}{subsection.4.2.3}}
\newlabel{parser-functions}{{4.2.3}{32}{Zpracování textových výstupů}{subsection.4.2.3}{}}
\@writefile{lof}{\contentsline {figure}{\numberline {4.3}{\ignorespaces Hled\IeC {\'a}n\IeC {\'\i } MAC adres pomoc\IeC {\'\i } regul\IeC {\'a}rn\IeC {\'\i }ho v\IeC {\'y}razu\relax }}{33}{figure.4.3}}
\newlabel{regex101_mac01}{{4.3}{33}{Hledání MAC adres pomocí regulárního výrazu\relax }{figure.4.3}{}}
\@writefile{lol}{\contentsline {lstlisting}{\numberline {4.5}{\ignorespaces Hled\IeC {\'a}n\IeC {\'\i } MAC adres pomoc\IeC {\'\i } regul\IeC {\'a}rn\IeC {\'\i }ho v\IeC {\'y}razu v Pythonu\relax }}{33}{lstlisting.4.5}}
\newlabel{regex101_mac01_python}{{4.5}{33}{Hledání MAC adres pomocí regulárního výrazu v Pythonu\relax }{lstlisting.4.5}{}}
\citation{textfsm}
\@writefile{lol}{\contentsline {lstlisting}{\numberline {4.6}{\ignorespaces Reprezentace v\IeC {\'y}stupu \texttt  {show mac address-table} ve form\IeC {\'a}tu JSON\relax }}{34}{lstlisting.4.6}}
\newlabel{regex101_mac01_json}{{4.6}{34}{Reprezentace výstupu \texttt {show mac address-table} ve formátu JSON\relax }{lstlisting.4.6}{}}
\@writefile{lol}{\contentsline {lstlisting}{\numberline {4.7}{\ignorespaces Parsov\IeC {\'a}n\IeC {\'\i } \texttt  {show etherchannel summary} - 1. krok\relax }}{36}{lstlisting.4.7}}
\newlabel{parser:show_etherchannel_sum_01}{{4.7}{36}{Parsování \texttt {show etherchannel summary} - 1. krok\relax }{lstlisting.4.7}{}}
\@writefile{lol}{\contentsline {lstlisting}{\numberline {4.8}{\ignorespaces Parsov\IeC {\'a}n\IeC {\'\i } \texttt  {show etherchannel summary}\relax }}{37}{lstlisting.4.8}}
\newlabel{parser:show_etherchannel_sum_02}{{4.8}{37}{Parsování \texttt {show etherchannel summary}\relax }{lstlisting.4.8}{}}
\@writefile{toc}{\contentsline {subsection}{\numberline {4.2.4}Komunikace se za\IeC {\v r}\IeC {\'\i }zen\IeC {\'\i }mi}{37}{subsection.4.2.4}}
\@writefile{lol}{\contentsline {lstlisting}{\numberline {4.9}{\ignorespaces Z\IeC {\'\i }sk\IeC {\'a}v\IeC {\'a}n\IeC {\'\i } strukturovan\IeC {\'y}ch dat - get\_version()\relax }}{38}{lstlisting.4.9}}
\newlabel{get_ex_01}{{4.9}{38}{Získávání strukturovaných dat - get\_version()\relax }{lstlisting.4.9}{}}
\@writefile{toc}{\contentsline {section}{\numberline {4.3}Modelov\IeC {\'a} vrstva}{38}{section.4.3}}
\@writefile{lol}{\contentsline {lstlisting}{\numberline {4.10}{\ignorespaces Pou\IeC {\v z}\IeC {\'\i }t\IeC {\'\i } objektu Cisco\_IOS\_Model\relax }}{39}{lstlisting.4.10}}
\newlabel{ios_model:01}{{4.10}{39}{Použítí objektu Cisco\_IOS\_Model\relax }{lstlisting.4.10}{}}
\@writefile{toc}{\contentsline {subsection}{\numberline {4.3.1}S\IeC {\'\i }\IeC {\v t}ov\IeC {\'a} topologie}{40}{subsection.4.3.1}}
\citation{nextui_github}
\@writefile{lol}{\contentsline {lstlisting}{\numberline {4.11}{\ignorespaces Pou\IeC {\v z}\IeC {\'\i }t\IeC {\'\i } objektu Neighbor\_Discovery\relax }}{41}{lstlisting.4.11}}
\newlabel{neighbor_disc:01}{{4.11}{41}{Použítí objektu Neighbor\_Discovery\relax }{lstlisting.4.11}{}}
\@writefile{lol}{\contentsline {lstlisting}{\numberline {4.12}{\ignorespaces Pou\IeC {\v z}\IeC {\'\i }t\IeC {\'\i } objektu Topology\relax }}{42}{lstlisting.4.12}}
\newlabel{topology:01}{{4.12}{42}{Použítí objektu Topology\relax }{lstlisting.4.12}{}}
\@writefile{lof}{\contentsline {figure}{\numberline {4.4}{\ignorespaces Vykreslen\IeC {\'\i } topologie pomoc\IeC {\'\i } NextUI\relax }}{42}{figure.4.4}}
\newlabel{fig:next_ui_01}{{4.4}{42}{Vykreslení topologie pomocí NextUI\relax }{figure.4.4}{}}
\@writefile{toc}{\contentsline {subsection}{\numberline {4.3.2}Zpracov\IeC {\'a}n\IeC {\'\i } form\IeC {\'a}tovan\IeC {\'y}ch dat}{42}{subsection.4.3.2}}
\newlabel{json_utils}{{4.3.2}{42}{Zpracování formátovaných dat}{subsection.4.3.2}{}}
\citation{wiki:restructuredtext}
\@writefile{toc}{\contentsline {section}{\numberline {4.4}Testov\IeC {\'a}n\IeC {\'\i } n\IeC {\'a}stroje}{43}{section.4.4}}
\newlabel{nuaal:testing}{{4.4}{43}{Testování nástroje}{section.4.4}{}}
\@writefile{toc}{\contentsline {section}{\numberline {4.5}Instalace a distribuce n\IeC {\'a}stroje}{43}{section.4.5}}
\@writefile{toc}{\contentsline {section}{\numberline {4.6}Roz\IeC {\v s}\IeC {\'\i }\IeC {\v r}en\IeC {\'\i } n\IeC {\'a}stroje NUAAL}{44}{section.4.6}}
\@writefile{toc}{\contentsline {chapter}{\numberline {5}Z\IeC {\'a}v\IeC {\v e}r}{46}{chapter.5}}
\@writefile{lof}{\addvspace {10\p@ }}
\@writefile{lot}{\addvspace {10\p@ }}
\@writefile{toc}{\contentsline {section}{\numberline {5.1}P\IeC {\v r}\IeC {\'\i }nosy pr\IeC {\'a}ce}{47}{section.5.1}}
\@writefile{toc}{\contentsline {section}{\numberline {5.2}Budouc\IeC {\'\i } roz\IeC {\v s}\IeC {\'\i }\IeC {\v r}en\IeC {\'\i }}{47}{section.5.2}}
\bibstyle{unsrt}
\bibdata{reference}
\bibcite{apic-em-deep-dive}{1}
\bibcite{gartner_iot}{2}
\bibcite{rfc:iab_meeting}{3}
\bibcite{4958894}{4}
\bibcite{2LWNPPouU9leX5kv}{5}
\bibcite{doi:10.1002/sec.1737}{6}
\bibcite{chou_2017}{7}
\bibcite{apic-em:datasheet}{8}
\bibcite{netmiko_docs}{9}
\bibcite{netmiko_github}{10}
\bibcite{textfsm}{11}
\bibcite{nextui_github}{12}
\bibcite{wiki:restructuredtext}{13}
\@writefile{toc}{\contentsline {chapter}{Seznam pou\IeC {\v z}it\IeC {\'y}ch zdroj\IeC {\r u}}{v}{chapter*.8}}
\providecommand\@xdylanguage[2]{}
\@xdylanguage{acronym}{czech}
\providecommand\@gls@codepage[2]{}
\@gls@codepage{acronym}{utf8}
\providecommand\@xdylanguage[2]{}
\@xdylanguage{main}{czech}
\providecommand\@gls@codepage[2]{}
\@gls@codepage{main}{utf8}
